# 3ds Max Wavefront OBJ Exporter v0.97b - (c)2007 guruware
# File Created: 02.02.2021 16:26:05



#
# object numero2
#

v  4.8353 -3.5900 1.0000
v  1.7100 -3.5769 1.0000
v  2.8616 -4.0000 1.0000
v  4.8353 -4.0000 -1.0687
v  4.8353 -3.5900 -1.0687
v  4.8353 -4.0000 1.0000
v  2.8616 -4.0000 -1.0687
v  -1.1245 -4.0000 1.0000
v  -1.1245 -3.0642 -1.0687
v  -1.1245 -4.0000 -1.0687
v  1.7100 -3.5769 -1.0687
v  -0.2789 4.1472 -1.0687
v  0.1913 3.7436 -1.0687
v  -0.2789 4.1472 1.0000
v  3.0067 -1.0004 -1.0687
v  1.4093 -1.7370 -1.0687
v  -0.9128 -3.2875 1.0000
v  1.4093 -1.7370 1.0000
v  -1.1245 -3.0642 1.0000
v  4.1954 1.4265 1.0000
v  3.0067 -1.0004 1.0000
v  2.7845 2.1743 -1.0687
v  2.7845 2.1743 1.0000
v  4.1954 1.4265 -1.0687
v  4.6245 3.2586 -1.0687
v  2.6075 3.5773 -1.0687
v  4.6245 3.2586 1.0000
v  4.0247 4.7367 1.0000
v  4.0247 4.7367 -1.0687
v  1.2802 4.1202 1.0000
v  2.7927 5.7588 1.0000
v  0.8962 5.7878 1.0000
v  2.6075 4.5773 1.0000
v  2.7927 5.7588 -1.0687
v  1.2802 4.1202 -1.0687
v  0.8962 5.7878 -1.0687
v  -0.2928 5.0053 -1.0687
v  0.1913 3.7436 1.0000
v  -0.2928 5.0053 1.0000
# 39 vertices

vn 0.5762 0.5787 0.5771
vn 0.2062 0.0916 0.9742
vn 0.0000 -0.7071 0.7071
vn 0.5774 -0.5774 -0.5774
vn 0.5762 0.5787 -0.5771
vn 0.5774 -0.5774 0.5774
vn 0.0000 -0.7071 -0.7071
vn -0.5774 -0.5774 0.5774
vn -0.7195 0.2868 -0.6325
vn -0.5774 -0.5774 -0.5774
vn 0.2062 0.0916 -0.9742
vn -0.7064 -0.3315 -0.6254
vn -0.1482 -0.7781 -0.6103
vn -0.7064 -0.3315 0.6254
vn 0.6088 -0.4140 -0.6767
vn -0.5448 0.4024 -0.7357
vn -0.5132 0.4865 0.7071
vn -0.5448 0.4024 0.7357
vn -0.7195 0.2868 0.6325
vn 0.6882 -0.2457 0.6826
vn 0.6088 -0.4140 0.6767
vn -0.6077 0.1195 -0.7851
vn -0.6077 0.1195 0.7851
vn 0.6882 -0.2457 -0.6826
vn 0.7620 0.0593 -0.6448
vn -0.4307 -0.3302 -0.8399
vn 0.7620 0.0593 0.6448
vn 0.6090 0.4458 0.6561
vn 0.6090 0.4458 -0.6561
vn -0.0167 -0.6054 0.7958
vn 0.2665 0.7212 0.6394
vn -0.2133 0.7325 0.6465
vn -0.4307 -0.3302 0.8399
vn 0.2665 0.7212 -0.6394
vn -0.0167 -0.6054 -0.7958
vn -0.2133 0.7325 -0.6465
vn -0.6984 0.3692 -0.6131
vn -0.1482 -0.7781 0.6103
vn -0.6984 0.3692 0.6131
# 39 vertex normals

vt 1.0000 1.0000 0.0000
vt 0.0000 1.0000 0.0000
vt 0.0000 0.0000 0.0000
vt 1.0000 0.0000 0.0000
# 4 texture coords

o numero2
g numero2

s 1
f 1/1/1 2/2/2 3/3/3 
f 4/4/4 5/1/5 6/3/6 
f 7/4/7 5/2/5 4/3/4 
f 8/4/8 9/2/9 10/3/10 
f 5/1/5 11/2/11 2/3/2 
f 4/4/4 6/1/6 7/3/7 
f 8/4/8 10/3/10 7/3/7 
f 2/1/2 8/4/8 3/4/3 
f 12/2/12 13/2/13 14/1/14 
f 7/3/7 10/3/10 11/2/11 
f 11/2/11 15/2/15 2/1/2 
f 16/2/16 15/2/15 11/2/11 
f 17/1/17 18/1/18 16/2/16 
f 18/1/18 17/1/17 19/1/19 
f 19/1/19 2/1/2 18/1/18 
f 15/2/15 20/1/20 21/1/21 
f 16/2/16 22/2/22 15/2/15 
f 23/1/23 22/2/22 16/2/16 
f 21/1/21 23/1/23 18/1/18 
f 24/2/24 25/2/25 20/1/20 
f 22/2/22 26/2/26 25/2/25 
f 23/1/23 26/2/26 22/2/22 
f 20/1/20 27/1/27 23/1/23 
f 25/2/25 28/1/28 27/1/27 
f 25/2/25 26/2/26 29/2/29 
f 30/1/30 31/1/31 32/1/32 
f 33/1/33 27/1/27 28/1/28 
f 29/2/29 34/2/34 28/1/28 
f 26/2/26 34/2/34 29/2/29 
f 30/1/30 35/2/35 26/2/26 
f 28/1/28 31/1/31 33/1/33 
f 34/2/34 32/1/32 31/1/31 
f 34/2/34 35/2/35 36/2/36 
f 30/1/30 13/2/13 35/2/35 
f 36/2/36 37/2/37 32/1/32 
f 36/2/36 35/2/35 37/2/37 
f 38/1/38 30/1/30 39/1/39 
f 39/1/39 14/1/14 38/1/38 
f 30/1/30 32/1/32 39/1/39 
f 37/2/37 14/1/14 39/1/39 
f 12/2/12 37/2/37 35/2/35 
f 35/2/35 13/2/13 12/2/12 
f 31/1/31 30/1/30 33/1/33 
f 26/2/26 35/2/35 34/2/34 
f 27/1/27 33/1/33 23/1/23 
f 25/2/25 24/2/24 22/2/22 
f 22/2/22 24/2/24 15/2/15 
f 21/1/21 20/1/20 23/1/23 
f 2/1/2 21/1/21 18/1/18 
f 11/2/11 9/2/9 16/2/16 
f 10/3/10 9/2/9 11/2/11 
f 2/1/2 19/1/19 8/4/8 
f 3/3/3 6/4/6 1/1/1 
f 7/4/7 11/1/11 5/2/5 
f 19/1/19 17/1/17 16/2/16 
f 16/2/16 9/2/9 19/1/19 
f 16/2/16 18/1/18 23/1/23 
f 23/1/23 33/1/33 26/2/26 
f 26/2/26 33/1/33 30/1/30 
f 30/1/30 38/1/38 13/2/13 
f 13/2/13 38/1/38 14/1/14 
f 37/2/37 12/2/12 14/1/14 
f 37/2/37 39/1/39 32/1/32 
f 34/2/34 36/2/36 32/1/32 
f 34/2/34 31/1/31 28/1/28 
f 25/2/25 29/2/29 28/1/28 
f 25/2/25 27/1/27 20/1/20 
f 15/2/15 24/2/24 20/1/20 
f 15/2/15 21/1/21 2/1/2 
f 2/3/2 1/4/1 5/1/5 
f 5/1/5 1/2/1 6/3/6 
f 6/1/6 3/2/3 7/3/7 
f 7/3/7 3/4/3 8/4/8 
f 8/4/8 19/1/19 9/2/9 
# 74 faces

